lab 6
…
In the field of allergy/immunology, the top 5 frequently used words are “history,” “noted,” “patient,” “allergies,” and “nasal” (tied with “past” for fifth place). In dentistry, the leading words are “patient,” “tooth,” “teeth,” “left,” and “procedure.”

  top5 <- mtsamples2 %>%
  group_by(medical_specialty) %>%
  unnest_tokens(token, transcription) %>%
  anti_join(stop_words, by = c("token" = "word")) %>%
  filter(!grepl("^\\d+$", token)) %>%
  count(token, sort = TRUE) %>%
  top_n(5, n)

top5 <- top5 %>% arrange(medical_specialty)

top5

# A tibble: 210 × 3
# Groups:   medical_specialty [40]
   medical_specialty    token         n
   <chr>                <chr>     <int>
 1 Allergy / Immunology history      38
 2 Allergy / Immunology noted        23
 3 Allergy / Immunology patient      22
 4 Allergy / Immunology allergies    21
 5 Allergy / Immunology nasal        13
 6 Allergy / Immunology past         13
 7 Autopsy              left         83
 8 Autopsy              inch         59
 9 Autopsy              neck         55
10 Autopsy              anterior     47
# ℹ 200 more rows
…
